…
# artificially construct a tibble with 2 extractants and an additional column for extractant id
tidy_2_extr <- tidy_plates |>
  dplyr::mutate(
    map = dplyr::case_when(
      column == 8 ~ "extr_1",
      column == 4 ~ "extr_2",
      .default = map))
multiple_extractant_id # check it out
#> # A tibble: 78 × 4
#>    dataset plate_id map      extr_id
#>    <chr>   <chr>    <chr>    <chr>  
#>  1 Nmin    NO3_1F1  Std      none   
#>  2 Nmin    NO3_1F2  Std      none   
#>  3 Nmin    NO3_1F3  Std      none   
#>  4 Nmin    NO3_1F4  Std      none   
#>  5 Nmin    NO3_1F5  Std      none   
#>  6 Nmin    NO3_1F1  81_t1_z2 extr_1 
#>  7 Nmin    NO3_1F2  97_t1_z1 extr_2 
#>  8 Nmin    NO3_1F3  89_t1_z3 extr_2 
#>  9 Nmin    NO3_1F4  81_t1_z1 extr_1 
#> 10 Nmin    NO3_1F5  Std_3_t1 extr_2 
#> # ℹ 68 more rows
# joining with multiple_extractant_id
(dbl_extr_plate <- tidy_2_extr |> dplyr::left_join(multiple_extractant_id))
#> Joining with `by = join_by(dataset, plate_id, map)`
#> # A tibble: 480 × 9
#>    row   column well_id unique_well_id dataset plate_id map      abs   extr_id
#>    <chr> <chr>  <chr>   <chr>          <chr>   <chr>    <chr>    <chr> <chr>  
#>  1 A     1      A1      A1_NO3_1F1     Nmin    NO3_1F1  Std      0.092 none   
#>  2 A     1      A1      A1_NO3_1F2     Nmin    NO3_1F2  Std      0.091 none   
#>  3 A     1      A1      A1_NO3_1F3     Nmin    NO3_1F3  Std      0.110 none   
#>  4 A     1      A1      A1_NO3_1F4     Nmin    NO3_1F4  Std      0.092 none   
#>  5 A     1      A1      A1_NO3_1F5     Nmin    NO3_1F5  Std      0.113 none   
#>  6 A     2      A2      A2_NO3_1F1     Nmin    NO3_1F1  81_t1_z2 0.114 extr_1 
#>  7 A     2      A2      A2_NO3_1F2     Nmin    NO3_1F2  97_t1_z1 0.107 extr_2 
#>  8 A     2      A2      A2_NO3_1F3     Nmin    NO3_1F3  89_t1_z3 0.095 extr_2 
#>  9 A     2      A2      A2_NO3_1F4     Nmin    NO3_1F4  81_t1_z1 0.118 extr_1 
#> 10 A     2      A2      A2_NO3_1F5     Nmin    NO3_1F5  Std_3_t1 0.167 extr_2 
#> # ℹ 470 more rows
…
