…
  The desired number of rows. Defaults at `nrow = 30`. Note that if data
  is encoded in an Excel or equivalent file, the number of rows is not
  really important and can be increased indefinitely

## Value

A simple tibble with `nrow` rows and 3 columns: dataset, plate_id and
well_id.

## Examples

``` r
failed_wells_template()
#> # A tibble: 30 × 3
#>    dataset plate_id well_id
#>    <chr>   <chr>    <chr>  
#>  1 ""      ""       ""     
#>  2 ""      ""       ""     
#>  3 ""      ""       ""     
#>  4 ""      ""       ""     
#>  5 ""      ""       ""     
#>  6 ""      ""       ""     
#>  7 ""      ""       ""     
#>  8 ""      ""       ""     
#>  9 ""      ""       ""     
#> 10 ""      ""       ""     
#> # ℹ 20 more rows
```
