…
## See also

[`verticalize_plates()`](https://mdetoeuf.github.io/plate2N/reference/verticalize_plates.md)

## Examples

``` r
skanit_csv <- system.file("extdata", "skanit.csv", package = "plate2N")
skanit_tibbles <- skanit_to_tibble(skanit_csv)
join_abs_map(skanit_tibbles$abs_tibble, skanit_tibbles$map_tibble)
#> # A tibble: 96 × 22
#>    row   column `abs-M12` `abs-M16` `abs-M17` `abs-M18` `abs-M19` `abs-M20`
#>    <chr> <chr>  <chr>     <chr>     <chr>     <chr>     <chr>     <chr>    
#>  1 A     1      1.4402    1.5789    1.5611    1.7013    1.6865    1.7936   
#>  2 A     2      1.4802    1.5590    1.5946    1.6475    1.6805    1.7742   
#>  3 A     3      1.4380    1.5446    1.5868    1.6804    1.6934    1.7348   
#>  4 A     4      1.4752    1.5414    1.6137    1.6902    1.6825    1.8029   
#>  5 A     5      1.5143    1.6169    1.5939    1.6849    1.5994    1.7709   
#>  6 A     6      1.4927    1.5561    1.5973    1.6939    1.7107    1.7814   
#>  7 A     7      1.5052    1.5608    1.5888    1.6686    1.7196    1.7760   
#>  8 A     8      1.5293    1.5882    1.5836    1.6908    1.6722    1.7262   
#>  9 A     9      1.5301    1.6060    1.6011    1.7069    1.6220    1.8117   
#> 10 A     10     1.5228    1.5773    1.6066    1.6949    1.6794    1.7938   
#> # ℹ 86 more rows
#> # ℹ 14 more variables: `abs-M21` <chr>, `abs-M22` <chr>, `abs-M23` <chr>,
#> #   `abs-M1` <chr>, `map-M12` <chr>, `map-M16` <chr>, `map-M17` <chr>,
#> #   `map-M18` <chr>, `map-M19` <chr>, `map-M20` <chr>, `map-M21` <chr>,
#> #   `map-M22` <chr>, `map-M23` <chr>, `map-M1` <chr>
```
