…
## Examples

``` r
# bring some NA (abs) and empty wells in tidy_table to check that those wells are removed
data <- tidy_table
data$abs[1] <- NA
data$map[2] <- "empty"
qc_raw_abs(data)
#> Warning: 957 wells out of 958 are out of range for absorbance, i.e., not in the set boundaries of [0.1; 1]. 
#> See table to identify suspicious wells. 

#> # A tibble: 957 × 5
#>    dataset plate_id well_id map     abs   
#>    <chr>   <chr>    <chr>   <chr>   <chr> 
#>  1 expe1   M17      A1      Std0193 1.5611
#>  2 expe1   M18      A1      Std0289 1.7013
#>  3 expe1   M19      A1      Std0385 1.6865
#>  4 expe1   M20      A1      Std0481 1.7936
#>  5 expe1   M21      A1      Std0577 1.7925
#>  6 expe1   M22      A1      Std0673 1.8274
#>  7 expe1   M23      A1      Std0769 1.9330
#>  8 expe1   M12      A2      Std0002 1.4802
#>  9 expe1   M16      A2      Std0098 1.5590
#> 10 expe1   M17      A2      Std0194 1.5946
#> # ℹ 947 more rows
```
