…
- target_sp:

  Defaults to "N", the target compound to convert to

## Value

A tibble joining linear model data with absorbance data

## Examples

``` r
lm_table <- lm_output$lm_data
abs_data <- abs_corrected
reg_join_abs(lm_table, abs_data, target_sp = "N")
#> # A tibble: 528 × 10
#>    dataset plate_id map      abs_corrected std_sp target_sp std_unit     slope
#>    <chr>   <chr>    <chr>            <dbl> <chr>  <chr>     <chr>        <dbl>
#>  1 Nmin    NO3_1F1  81_t1_z2        0.0312 NO3    N         mg NO3- L-1 0.0189
#>  2 Nmin    NO3_1F1  81_t1_z2        0.0312 NO3    N         mg NO3- L-1 0.0179
#>  3 Nmin    NO3_1F2  97_t1_z1        0.0249 NO3    N         mg NO3- L-1 0.0178
#>  4 Nmin    NO3_1F2  97_t1_z1        0.0249 NO3    N         mg NO3- L-1 0.0190
#>  5 Nmin    NO3_1F3  89_t1_z3        0.0104 NO3    N         mg NO3- L-1 0.0186
#>  6 Nmin    NO3_1F3  89_t1_z3        0.0104 NO3    N         mg NO3- L-1 0.0184
#>  7 Nmin    NO3_1F4  81_t1_z1        0.0342 NO3    N         mg NO3- L-1 0.0178
#>  8 Nmin    NO3_1F4  81_t1_z1        0.0342 NO3    N         mg NO3- L-1 0.0188
#>  9 Nmin    NO3_1F5  Std_3_t1        0.0832 NO3    N         mg NO3- L-1 0.0194
#> 10 Nmin    NO3_1F5  Std_3_t1        0.0832 NO3    N         mg NO3- L-1 0.0185
#> # ℹ 518 more rows
#> # ℹ 2 more variables: adj_r_squared <dbl>, lm_p <dbl>
```
