…
A table in a tidy format for downstream analysis

## Examples

``` r
map_file <- system.file("extdata", "csv_map.csv", package = "plate2N")
abs_folder <- system.file("extdata", "txt_examples/", package = "plate2N")
map_tibble <- csv_to_tibble(map_file)
abs_tibble <- txt_to_tibble(abs_folder)
joined_vertical <- join_abs_map(
    list(abs_tibble, map_tibble),
    dataset = "Nmin-", abs_map = c("abs-", "map-"))
(tidy_data <- vertical_to_tidy(joined_vertical, column_def = c("abs", "map")))
#> # A tibble: 480 × 8
#>    row   column well_id unique_well_id dataset plate_id abs   map     
#>    <chr> <chr>  <chr>   <chr>          <chr>   <chr>    <chr> <chr>   
#>  1 A     1      A1      A1_NO3_1F1     Nmin    NO3_1F1  0.092 Std     
#>  2 A     1      A1      A1_NO3_1F2     Nmin    NO3_1F2  0.091 Std     
#>  3 A     1      A1      A1_NO3_1F3     Nmin    NO3_1F3  0.110 Std     
#>  4 A     1      A1      A1_NO3_1F4     Nmin    NO3_1F4  0.092 Std     
#>  5 A     1      A1      A1_NO3_1F5     Nmin    NO3_1F5  0.113 Std     
#>  6 A     2      A2      A2_NO3_1F1     Nmin    NO3_1F1  0.114 81_t1_z2
#>  7 A     2      A2      A2_NO3_1F2     Nmin    NO3_1F2  0.107 97_t1_z1
#>  8 A     2      A2      A2_NO3_1F3     Nmin    NO3_1F3  0.095 89_t1_z3
#>  9 A     2      A2      A2_NO3_1F4     Nmin    NO3_1F4  0.118 81_t1_z1
#> 10 A     2      A2      A2_NO3_1F5     Nmin    NO3_1F5  0.167 Std_3_t1
#> # ℹ 470 more rows
```
