blank-correction • plate2N
…
In theory, the “samples” pipeline should be adaptable to the case where all wells used the same blank (including those containing standard curve solutions), though this has yet to be tested, and bugs may occur. Feel free to contact the authors to suggest improvements.

To avoid confusion between “blank of the standard curve” and “blank of the samples”, the sample-blank is referred to as “extractant” or extr throughout this vignette, to refer to the solution that was used to extract N-compounds from soil samples and now serves as blank. The standard blank is referred to as std_blank.

1 - Getting raw absorbance data

The vignette import-tidy shows how to import and tidy absorbance data. The vignette handling-outliers shows how to run some preliminary quality checks and possibly remove some first outliers. To access those vignettes, run the following commands

vignette("import-tidy", package = "plate2N")

vignette("handling-outliers", package = "plate2N")

tidy_plates
#> # A tibble: 480 × 8
#>    row   column well_id unique_well_id dataset plate_id map      abs  
#>    <chr> <chr>  <chr>   <chr>          <chr>   <chr>    <chr>    <chr>
#>  1 A     1      A1      A1_NO3_1F1     Nmin    NO3_1F1  Std      0.092
#>  2 A     1      A1      A1_NO3_1F2     Nmin    NO3_1F2  Std      0.091
#>  3 A     1      A1      A1_NO3_1F3     Nmin    NO3_1F3  Std      0.093
#>  4 A     1      A1      A1_NO3_1F4     Nmin    NO3_1F4  Std      0.092
#>  5 A     1      A1      A1_NO3_1F5     Nmin    NO3_1F5  Std      0.092
#>  6 A     2      A2      A2_NO3_1F1     Nmin    NO3_1F1  81_t1_z2 0.114
#>  7 A     2      A2      A2_NO3_1F2     Nmin    NO3_1F2  97_t1_z1 0.107
#>  8 A     2      A2      A2_NO3_1F3     Nmin    NO3_1F3  89_t1_z3 0.095
#>  9 A     2      A2      A2_NO3_1F4     Nmin    NO3_1F4  81_t1_z1 0.118
#> 10 A     2      A2      A2_NO3_1F5     Nmin    NO3_1F5  Std_3_t1 0.167
#> # ℹ 470 more rows
…
To fit in one row per plate, the concentrations for standard curve are, so far, stored in a compact manner, like this:

raw_meta |> dplyr::select(plate_id, std_conc) |> head(n = 3)
#> # A tibble: 3 × 2
#>   plate_id std_conc           
#>   <chr>    <chr>              
#> 1 NO3_1F1  0-0.5-1-2-4-8-16-24
#> 2 NO3_1F2  0-0.5-1-2-4-8-16-24
#> 3 NO3_1F3  0-0.5-1-2-4-8-16-24

Note that concentration values are separated by a - and digits are marked by a ., which is important in the function call to extract_curve(). Also, concentration values MUST be in ascending order in the metadata file. See also ?metadata and ?extract_curve()

(curve_concentration <- extract_curve(meta, pipetting_direction = "top_down"))
#> # A tibble: 40 × 4
#>    dataset plate_id row   std_conc
#>    <chr>   <chr>    <chr> <chr>   
#>  1 Nmin    NO3_1F1  A     0       
#>  2 Nmin    NO3_1F1  B     0.5     
#>  3 Nmin    NO3_1F1  C     1       
#>  4 Nmin    NO3_1F1  D     2       
#>  5 Nmin    NO3_1F1  E     4       
#>  6 Nmin    NO3_1F1  F     8       
#>  7 Nmin    NO3_1F1  G     16      
#>  8 Nmin    NO3_1F1  H     24      
#>  9 Nmin    NO3_1F2  A     0       
#> 10 Nmin    NO3_1F2  B     0.5     
#> # ℹ 30 more rows

Too many rows?

A common mistake is to run extract_curve() on raw_meta instead of meta. But meta has one row per plate, whereas raw_meta has one row per well, so that calling extract_curve(raw_meta) would result on a table that is much too long (~96 times too long). If you run into issues later, this might be the source.

We now have curve concentrations connected to the dataset, plate_id and row of a plate, which we can use for all downstream steps. This goes under the assumption that standard curves are pipetted vertically in a complete column of the 96-well plate. Check ?extract_curve() for more details.

2.2 - Extract Standard data

std_data <- raw_meta |> 
  extract_std_data(std_def = "Std") |> 
  dplyr::select(!std_conc) |> 
  dplyr::left_join(curve_concentration, by = dplyr::join_by(row, dataset, plate_id))
std_data
#> # A tibble: 80 × 12
#> # Groups:   dataset, plate_id [5]
#>    row   column well_id unique_well_id dataset plate_id unique_curve_id map  
#>    <chr> <chr>  <chr>   <chr>          <chr>   <chr>    <chr>           <chr>
#>  1 A     1      A1      A1_NO3_1F1     Nmin    NO3_1F1  NO3_1F1_col1    Std  
#>  2 A     1      A1      A1_NO3_1F2     Nmin    NO3_1F2  NO3_1F2_col1    Std  
#>  3 A     1      A1      A1_NO3_1F3     Nmin    NO3_1F3  NO3_1F3_col1    Std  
#>  4 A     1      A1      A1_NO3_1F4     Nmin    NO3_1F4  NO3_1F4_col1    Std  
#>  5 A     1      A1      A1_NO3_1F5     Nmin    NO3_1F5  NO3_1F5_col1    Std  
#>  6 A     12     A12     A12_NO3_1F1    Nmin    NO3_1F1  NO3_1F1_col12   Std  
#>  7 A     12     A12     A12_NO3_1F2    Nmin    NO3_1F2  NO3_1F2_col12   Std  
#>  8 A     12     A12     A12_NO3_1F3    Nmin    NO3_1F3  NO3_1F3_col12   Std  
#>  9 A     12     A12     A12_NO3_1F4    Nmin    NO3_1F4  NO3_1F4_col12   Std  
#> 10 A     12     A12     A12_NO3_1F5    Nmin    NO3_1F5  NO3_1F5_col12   Std  
#> # ℹ 70 more rows
#> # ℹ 4 more variables: abs <chr>, std_sp <chr>, std_unit <chr>, std_conc <chr>
…
