…
[`vignette("import-tidy", package = "plate2N")`](https://mdetoeuf.github.io/plate2N/articles/import-tidy.md)

[`vignette("handling-outliers", package = "plate2N")`](https://mdetoeuf.github.io/plate2N/articles/handling-outliers.md)

Tidy data as imported according to `import-tidy` should look something
like this:

``` r

tidy_plates
#> # A tibble: 480 × 8
#>    row   column well_id unique_well_id dataset plate_id map      abs  
#>    <chr> <chr>  <chr>   <chr>          <chr>   <chr>    <chr>    <chr>
#>  1 A     1      A1      A1_NO3_1F1     Nmin    NO3_1F1  Std      0.092
#>  2 A     1      A1      A1_NO3_1F2     Nmin    NO3_1F2  Std      0.091
#>  3 A     1      A1      A1_NO3_1F3     Nmin    NO3_1F3  Std      0.110
#>  4 A     1      A1      A1_NO3_1F4     Nmin    NO3_1F4  Std      0.092
#>  5 A     1      A1      A1_NO3_1F5     Nmin    NO3_1F5  Std      0.113
#>  6 A     2      A2      A2_NO3_1F1     Nmin    NO3_1F1  81_t1_z2 0.114
#>  7 A     2      A2      A2_NO3_1F2     Nmin    NO3_1F2  97_t1_z1 0.107
#>  8 A     2      A2      A2_NO3_1F3     Nmin    NO3_1F3  89_t1_z3 0.095
#>  9 A     2      A2      A2_NO3_1F4     Nmin    NO3_1F4  81_t1_z1 0.118
#> 10 A     2      A2      A2_NO3_1F5     Nmin    NO3_1F5  Std_3_t1 0.167
#> # ℹ 470 more rows
```
…
We now join (raw) plate data and metadata (meta). Note that there has to
be a correspondence in the columns `dataset` and `plate_id` between the
raw absorbance data and the metadata.

``` r

(raw_meta <- tidy_plates |> 
  dplyr::left_join(meta, by = dplyr::join_by(dataset, plate_id)))
#> # A tibble: 480 × 11
#>    row   column well_id unique_well_id dataset plate_id map      abs   std_sp
#>    <chr> <chr>  <chr>   <chr>          <chr>   <chr>    <chr>    <chr> <chr> 
#>  1 A     1      A1      A1_NO3_1F1     Nmin    NO3_1F1  Std      0.092 NO3   
#>  2 A     1      A1      A1_NO3_1F2     Nmin    NO3_1F2  Std      0.091 NO3   
#>  3 A     1      A1      A1_NO3_1F3     Nmin    NO3_1F3  Std      0.110 NO3   
#>  4 A     1      A1      A1_NO3_1F4     Nmin    NO3_1F4  Std      0.092 NO3   
#>  5 A     1      A1      A1_NO3_1F5     Nmin    NO3_1F5  Std      0.113 NO3   
#>  6 A     2      A2      A2_NO3_1F1     Nmin    NO3_1F1  81_t1_z2 0.114 NO3   
#>  7 A     2      A2      A2_NO3_1F2     Nmin    NO3_1F2  97_t1_z1 0.107 NO3   
#>  8 A     2      A2      A2_NO3_1F3     Nmin    NO3_1F3  89_t1_z3 0.095 NO3   
#>  9 A     2      A2      A2_NO3_1F4     Nmin    NO3_1F4  81_t1_z1 0.118 NO3   
#> 10 A     2      A2      A2_NO3_1F5     Nmin    NO3_1F5  Std_3_t1 0.167 NO3   
#> # ℹ 470 more rows
#> # ℹ 2 more variables: std_unit <chr>, std_conc <chr>
```
…
But in truth, only one of those concentration values corresponds to each
value of well of the standard curve.

Note that concentration values are separated by a `-` and digits are
marked by a `.`, which is important in the function call to
[`extract_curve()`](https://mdetoeuf.github.io/plate2N/reference/extract_curve.md).
Also, concentration values MUST be in ascending order in the metadata
file. See also
[`?metadata`](https://mdetoeuf.github.io/plate2N/reference/metadata.md)
and `?extract_curve()`

``` r

(curve_concentration <- extract_curve(meta, pipetting_direction = "top_down"))
#> # A tibble: 40 × 4
#>    dataset plate_id row   std_conc
#>    <chr>   <chr>    <chr>    <dbl>
#>  1 Nmin    NO3_1F1  A          0  
#>  2 Nmin    NO3_1F1  B          0.5
#>  3 Nmin    NO3_1F1  C          1  
#>  4 Nmin    NO3_1F1  D          2  
#>  5 Nmin    NO3_1F1  E          4  
#>  6 Nmin    NO3_1F1  F          8  
#>  7 Nmin    NO3_1F1  G         16  
#>  8 Nmin    NO3_1F1  H         24  
#>  9 Nmin    NO3_1F2  A          0  
#> 10 Nmin    NO3_1F2  B          0.5
#> # ℹ 30 more rows
```
…
``` r

std_data <- raw_meta |> 
  extract_std_data(std_def = "Std") |> 
  dplyr::select(!std_conc) |> 
  dplyr::left_join(curve_concentration, by = dplyr::join_by(row, dataset, plate_id))

# Check it out (rearranging rows and columns for better readibility)
std_data |> 
  dplyr::arrange(plate_id, column) |> 
  dplyr::relocate(well_id, dataset, plate_id, map, abs, std_conc, std_unit)
#> # A tibble: 80 × 12
#> # Groups:   dataset, plate_id [5]
#>    well_id dataset plate_id map   abs   std_conc std_unit    row   column
#>    <chr>   <chr>   <chr>    <chr> <chr>    <dbl> <chr>       <chr> <chr> 
#>  1 A1      Nmin    NO3_1F1  Std   0.092      0   mg NO3- L-1 A     1     
#>  2 B1      Nmin    NO3_1F1  Std   0.100      0.5 mg NO3- L-1 B     1     
#>  3 C1      Nmin    NO3_1F1  Std   0.107      1   mg NO3- L-1 C     1     
#>  4 D1      Nmin    NO3_1F1  Std   0.122      2   mg NO3- L-1 D     1     
#>  5 E1      Nmin    NO3_1F1  Std   0.157      4   mg NO3- L-1 E     1     
#>  6 F1      Nmin    NO3_1F1  Std   0.238      8   mg NO3- L-1 F     1     
#>  7 G1      Nmin    NO3_1F1  Std   0.396     16   mg NO3- L-1 G     1     
#>  8 H1      Nmin    NO3_1F1  Std   0.546     24   mg NO3- L-1 H     1     
#>  9 A12     Nmin    NO3_1F1  Std   0.091      0   mg NO3- L-1 A     12    
#> 10 B12     Nmin    NO3_1F1  Std   0.097      0.5 mg NO3- L-1 B     12    
#> # ℹ 70 more rows
#> # ℹ 3 more variables: unique_well_id <chr>, unique_curve_id <chr>, std_sp <chr>
```
…
# Check it out
std_corrected
#> # A tibble: 70 × 9
#>    row   column well_id unique_well_id dataset plate_id unique_curve_id map  
#>    <chr> <chr>  <chr>   <chr>          <chr>   <chr>    <chr>           <chr>
#>  1 B     1      B1      B1_NO3_1F1     Nmin    NO3_1F1  NO3_1F1_col1    Std  
#>  2 B     1      B1      B1_NO3_1F2     Nmin    NO3_1F2  NO3_1F2_col1    Std  
#>  3 B     1      B1      B1_NO3_1F3     Nmin    NO3_1F3  NO3_1F3_col1    Std  
#>  4 B     1      B1      B1_NO3_1F4     Nmin    NO3_1F4  NO3_1F4_col1    Std  
#>  5 B     1      B1      B1_NO3_1F5     Nmin    NO3_1F5  NO3_1F5_col1    Std  
#>  6 B     12     B12     B12_NO3_1F1    Nmin    NO3_1F1  NO3_1F1_col12   Std  
#>  7 B     12     B12     B12_NO3_1F2    Nmin    NO3_1F2  NO3_1F2_col12   Std  
#>  8 B     12     B12     B12_NO3_1F3    Nmin    NO3_1F3  NO3_1F3_col12   Std  
#>  9 B     12     B12     B12_NO3_1F4    Nmin    NO3_1F4  NO3_1F4_col12   Std  
#> 10 B     12     B12     B12_NO3_1F5    Nmin    NO3_1F5  NO3_1F5_col12   Std  
#> # ℹ 60 more rows
#> # ℹ 1 more variable: abs_corrected <dbl>
```
…
## 3 - Blank-correction of samples

### 3.1 - Extract extractant data (sample blank)

In a real world, `raw_meta` will have probably undergone some cleaning
steps (e.g., outlier removal, see `handling-outliers`). In this example
dataset, there are always 8 wells attributed to the sample blank (or
extractant), which is found because its mapping (column “map” in
`raw_meta`) contains the string “extr”, as can be seen here:

``` r

# look at extractant data
raw_meta |> dplyr::filter(map == "extr")
#> # A tibble: 40 × 11
#>    row   column well_id unique_well_id dataset plate_id map   abs   std_sp
#>    <chr> <chr>  <chr>   <chr>          <chr>   <chr>    <chr> <chr> <chr> 
#>  1 A     8      A8      A8_NO3_1F1     Nmin    NO3_1F1  extr  0.083 NO3   
#>  2 A     8      A8      A8_NO3_1F2     Nmin    NO3_1F2  extr  0.083 NO3   
#>  3 A     8      A8      A8_NO3_1F3     Nmin    NO3_1F3  extr  0.084 NO3   
#>  4 A     8      A8      A8_NO3_1F4     Nmin    NO3_1F4  extr  0.084 NO3   
#>  5 A     8      A8      A8_NO3_1F5     Nmin    NO3_1F5  extr  0.084 NO3   
#>  6 B     8      B8      B8_NO3_1F1     Nmin    NO3_1F1  extr  0.083 NO3   
#>  7 B     8      B8      B8_NO3_1F2     Nmin    NO3_1F2  extr  0.082 NO3   
#>  8 B     8      B8      B8_NO3_1F3     Nmin    NO3_1F3  extr  0.085 NO3   
#>  9 B     8      B8      B8_NO3_1F4     Nmin    NO3_1F4  extr  0.084 NO3   
#> 10 B     8      B8      B8_NO3_1F5     Nmin    NO3_1F5  extr  0.084 NO3   
#> # ℹ 30 more rows
#> # ℹ 2 more variables: std_unit <chr>, std_conc <chr>
```

This filtering is also what
[`extract_extractant()`](https://mdetoeuf.github.io/plate2N/reference/extract_extractant.md)
does in the background, which is the first step of
[`extractant_average()`](https://mdetoeuf.github.io/plate2N/reference/extractant_average.md)
(see below).

``` r

extr_data <- extract_extractant(raw_meta)

# Check it out
extr_data
#> # A tibble: 40 × 11
#>    row   column well_id unique_well_id dataset plate_id map   abs   std_sp
#>    <chr> <chr>  <chr>   <chr>          <chr>   <chr>    <chr> <chr> <chr> 
#>  1 A     8      A8      A8_NO3_1F1     Nmin    NO3_1F1  extr  0.083 NO3   
#>  2 A     8      A8      A8_NO3_1F2     Nmin    NO3_1F2  extr  0.083 NO3   
#>  3 A     8      A8      A8_NO3_1F3     Nmin    NO3_1F3  extr  0.084 NO3   
#>  4 A     8      A8      A8_NO3_1F4     Nmin    NO3_1F4  extr  0.084 NO3   
#>  5 A     8      A8      A8_NO3_1F5     Nmin    NO3_1F5  extr  0.084 NO3   
#>  6 B     8      B8      B8_NO3_1F1     Nmin    NO3_1F1  extr  0.083 NO3   
#>  7 B     8      B8      B8_NO3_1F2     Nmin    NO3_1F2  extr  0.082 NO3   
#>  8 B     8      B8      B8_NO3_1F3     Nmin    NO3_1F3  extr  0.085 NO3   
#>  9 B     8      B8      B8_NO3_1F4     Nmin    NO3_1F4  extr  0.084 NO3   
#> 10 B     8      B8      B8_NO3_1F5     Nmin    NO3_1F5  extr  0.084 NO3   
#> # ℹ 30 more rows
#> # ℹ 2 more variables: std_unit <chr>, std_conc <chr>
```
…
#### 3.3.3 - 2 or more extractants per plate

The steps are the same as with one extractant, but the syntax changes
slightly. Let’s take the example data set `dbl_extr_plate`:

``` r

dbl_extr_plate
#> # A tibble: 480 × 9
#>    row   column well_id unique_well_id dataset plate_id map      abs   extr_id
#>    <chr> <chr>  <chr>   <chr>          <chr>   <chr>    <chr>    <chr> <chr>  
#>  1 A     1      A1      A1_NO3_1F1     Nmin    NO3_1F1  Std      0.092 none   
#>  2 A     1      A1      A1_NO3_1F2     Nmin    NO3_1F2  Std      0.091 none   
#>  3 A     1      A1      A1_NO3_1F3     Nmin    NO3_1F3  Std      0.110 none   
#>  4 A     1      A1      A1_NO3_1F4     Nmin    NO3_1F4  Std      0.092 none   
#>  5 A     1      A1      A1_NO3_1F5     Nmin    NO3_1F5  Std      0.113 none   
#>  6 A     2      A2      A2_NO3_1F1     Nmin    NO3_1F1  81_t1_z2 0.114 extr_1 
#>  7 A     2      A2      A2_NO3_1F2     Nmin    NO3_1F2  97_t1_z1 0.107 extr_2 
#>  8 A     2      A2      A2_NO3_1F3     Nmin    NO3_1F3  89_t1_z3 0.095 extr_2 
#>  9 A     2      A2      A2_NO3_1F4     Nmin    NO3_1F4  81_t1_z1 0.118 extr_1 
#> 10 A     2      A2      A2_NO3_1F5     Nmin    NO3_1F5  Std_3_t1 0.167 extr_2 
#> # ℹ 470 more rows
```

Here is, in brief, how to adapt the same steps as described above:

``` r

# extracting only extractant data
(extr_data_dbl <- extract_extractant(dbl_extr_plate,extr_def = c("extr_1", "extr_2"))) 
#> # A tibble: 80 × 9
#>    row   column well_id unique_well_id dataset plate_id map    abs   extr_id
#>    <chr> <chr>  <chr>   <chr>          <chr>   <chr>    <chr>  <chr> <chr>  
#>  1 A     4      A4      A4_NO3_1F1     Nmin    NO3_1F1  extr_2 0.110 extr_2 
#>  2 A     4      A4      A4_NO3_1F2     Nmin    NO3_1F2  extr_2 0.093 extr_2 
#>  3 A     4      A4      A4_NO3_1F3     Nmin    NO3_1F3  extr_2 0.102 extr_2 
#>  4 A     4      A4      A4_NO3_1F4     Nmin    NO3_1F4  extr_2 0.108 extr_2 
#>  5 A     4      A4      A4_NO3_1F5     Nmin    NO3_1F5  extr_2 0.101 extr_2 
#>  6 A     8      A8      A8_NO3_1F1     Nmin    NO3_1F1  extr_1 0.083 extr_1 
#>  7 A     8      A8      A8_NO3_1F2     Nmin    NO3_1F2  extr_1 0.083 extr_1 
#>  8 A     8      A8      A8_NO3_1F3     Nmin    NO3_1F3  extr_1 0.084 extr_1 
#>  9 A     8      A8      A8_NO3_1F4     Nmin    NO3_1F4  extr_1 0.084 extr_1 
#> 10 A     8      A8      A8_NO3_1F5     Nmin    NO3_1F5  extr_1 0.084 extr_1 
#> # ℹ 70 more rows
…
# subsetting from extractant data only the plate-extractant combinations that are suspicious
(suspicious_extr_dbl <- suspicious_extr(
  dbl_extr_plate, extr_def = c("extr_1", "extr_2"),
  suspicious_extr_per_plate = suspicious_extr_per_plate_dbl, 
  max_coeff = 5))
#> Joining with `by = join_by(plate_id, map)`
#> # A tibble: 40 × 9
#>    row   column well_id unique_well_id dataset plate_id map      abs extr_id
#>    <chr> <chr>  <chr>   <chr>          <chr>   <chr>    <chr>  <dbl> <chr>  
#>  1 A     4      A4      A4_NO3_1F1     Nmin    NO3_1F1  extr_2 0.11  extr_2 
#>  2 B     4      B4      B4_NO3_1F1     Nmin    NO3_1F1  extr_2 0.109 extr_2 
#>  3 C     4      C4      C4_NO3_1F1     Nmin    NO3_1F1  extr_2 0.11  extr_2 
#>  4 D     4      D4      D4_NO3_1F1     Nmin    NO3_1F1  extr_2 0.109 extr_2 
#>  5 E     4      E4      E4_NO3_1F1     Nmin    NO3_1F1  extr_2 0.092 extr_2 
#>  6 F     4      F4      F4_NO3_1F1     Nmin    NO3_1F1  extr_2 0.093 extr_2 
#>  7 G     4      G4      G4_NO3_1F1     Nmin    NO3_1F1  extr_2 0.093 extr_2 
#>  8 H     4      H4      H4_NO3_1F1     Nmin    NO3_1F1  extr_2 0.092 extr_2 
#>  9 A     8      A8      A8_NO3_1F2     Nmin    NO3_1F2  extr_1 0.083 extr_1 
#> 10 B     8      B8      B8_NO3_1F2     Nmin    NO3_1F2  extr_1 0.082 extr_1 
#> # ℹ 30 more rows
…
Let’s have a look at the output and notice the absence of the value `1`
in the column `column` (no data for standard curve[^4]), and of the
value `extr` in the column `map` (though it was present in `raw_meta`
and still can be found under `extr_id`).

``` r

# Check it out
sample_corrected
#> # A tibble: 264 × 14
#>    row   column well_id unique_well_id dataset plate_id map      abs_corrected
#>    <chr> <chr>  <chr>   <chr>          <chr>   <chr>    <chr>            <dbl>
#>  1 A     2      A2      A2_NO3_1F1     Nmin    NO3_1F1  81_t1_z2        0.0312
#>  2 A     2      A2      A2_NO3_1F2     Nmin    NO3_1F2  97_t1_z1        0.0247
#>  3 A     2      A2      A2_NO3_1F3     Nmin    NO3_1F3  89_t1_z3        0.0104
#>  4 A     2      A2      A2_NO3_1F4     Nmin    NO3_1F4  81_t1_z1        0.0343
#>  5 A     2      A2      A2_NO3_1F5     Nmin    NO3_1F5  Std_3_t1        0.0832
#>  6 A     3      A3      A3_NO3_1F1     Nmin    NO3_1F1  82_t1_z2        0.0452
#>  7 A     3      A3      A3_NO3_1F2     Nmin    NO3_1F2  98_t1_z1        0.0217
#>  8 A     3      A3      A3_NO3_1F3     Nmin    NO3_1F3  90_t1_z3        0.0124
#>  9 A     3      A3      A3_NO3_1F4     Nmin    NO3_1F4  82_t1_z3        0.0543
#> 10 A     3      A3      A3_NO3_1F5     Nmin    NO3_1F5  98_t1_z3        0.0232
#> # ℹ 254 more rows
#> # ℹ 6 more variables: std_sp <chr>, std_unit <chr>, std_conc <chr>,
#> #   extr_id <chr>, blank_sdev <dbl>, blank_coeff_var_percent <dbl>

# "extr" was in raw_meta
raw_meta |> dplyr::select(map) |> dplyr::arrange(dplyr::desc(map))
#> # A tibble: 480 × 1
#>    map  
#>    <chr>
#>  1 extr 
#>  2 extr 
#>  3 extr 
#>  4 extr 
#>  5 extr 
#>  6 extr 
#>  7 extr 
#>  8 extr 
#>  9 extr 
#> 10 extr 
#> # ℹ 470 more rows

# "extr" no longer in "sample_corrected
sample_corrected |> dplyr::select(map) |> dplyr::arrange(dplyr::desc(map))
#> # A tibble: 264 × 1
#>    map         
#>    <chr>       
#>  1 Std_3_t1_2  
#>  2 Std_3_t1_2  
#>  3 Std_3_t1_2  
#>  4 Std_3_t1_2  
#>  5 Std_3_t1    
#>  6 Std_3_t1    
#>  7 Std_3_t1    
#>  8 Std_3_t1    
#>  9 99_t1_z3_bis
#> 10 99_t1_z3_bis
#> # ℹ 254 more rows
```
…
