…
According to the logic of this package, 3 pieces of information uniquely
define a well: `dataset`, `plate_id` and `well_id`. The function
[`remove_wells()`](https://mdetoeuf.github.io/plate2N/reference/remove_wells.md)
allows manual removal of wells from a table formatted as `tidy_table`,
taking a small tibble such as `failed_wells_example` to decide which
wells to remove.

First, let’s check out the input data: a `tidy_table` with 960 rows and
a small table referring to failed wells with 2 rows.

``` r

# check out input
tidy_table ; failed_wells_example
#> # A tibble: 960 × 8
#>    row   column well_id plate_id unique_well_id dataset map     abs   
#>    <chr> <chr>  <chr>   <chr>    <chr>          <chr>   <chr>   <chr> 
#>  1 A     1      A1      M12      A1_M12         expe1   Std0001 1.4402
#>  2 A     1      A1      M16      A1_M16         expe1   Std0097 1.5789
#>  3 A     1      A1      M17      A1_M17         expe1   Std0193 1.5611
#>  4 A     1      A1      M18      A1_M18         expe1   Std0289 1.7013
#>  5 A     1      A1      M19      A1_M19         expe1   Std0385 1.6865
#>  6 A     1      A1      M20      A1_M20         expe1   Std0481 1.7936
#>  7 A     1      A1      M21      A1_M21         expe1   Std0577 1.7925
#>  8 A     1      A1      M22      A1_M22         expe1   Std0673 1.8274
#>  9 A     1      A1      M23      A1_M23         expe1   Std0769 1.9330
#> 10 A     1      A1      M1       A1_M1          expe1   Std0865 0.9254
#> # ℹ 950 more rows
…
Here is how to use the function
[`remove_wells()`](https://mdetoeuf.github.io/plate2N/reference/remove_wells.md).
Notice that `clean_table` has 958 rows, i.e., 2 rows less than the 960
of `tidy_table`.

``` r

# remove wells
(clean_table <- tidy_table |> remove_wells(failed_wells_example))
#> # A tibble: 958 × 8
#>    row   column well_id plate_id unique_well_id dataset map     abs   
#>    <chr> <chr>  <chr>   <chr>    <chr>          <chr>   <chr>   <chr> 
#>  1 A     1      A1      M12      A1_M12         expe1   Std0001 1.4402
#>  2 A     1      A1      M17      A1_M17         expe1   Std0193 1.5611
#>  3 A     1      A1      M18      A1_M18         expe1   Std0289 1.7013
#>  4 A     1      A1      M19      A1_M19         expe1   Std0385 1.6865
#>  5 A     1      A1      M20      A1_M20         expe1   Std0481 1.7936
#>  6 A     1      A1      M21      A1_M21         expe1   Std0577 1.7925
#>  7 A     1      A1      M22      A1_M22         expe1   Std0673 1.8274
#>  8 A     1      A1      M23      A1_M23         expe1   Std0769 1.9330
#>  9 A     1      A1      M1       A1_M1          expe1   Std0865 0.9254
#> 10 A     2      A2      M12      A2_M12         expe1   Std0002 1.4802
#> # ℹ 948 more rows
…
### 2.1 - From a csv

It can he handy to have a printed table in the lab, to quickly fill in
by hand the information on wells where we know that something went
wrong. For this, the function
[`failed_wells_template()`](https://mdetoeuf.github.io/plate2N/reference/failed_wells_template.md)
quickly generates a table that can be exported as a csv, printed, then
manually encoded and imported back into R. By default, it will generate
a csv with 30 rows.

``` r

(failed_wells_template <- failed_wells_template(nrow = 30))
#> # A tibble: 30 × 3
#>    dataset plate_id well_id
#>    <chr>   <chr>    <chr>  
#>  1 ""      ""       ""     
#>  2 ""      ""       ""     
#>  3 ""      ""       ""     
#>  4 ""      ""       ""     
#>  5 ""      ""       ""     
#>  6 ""      ""       ""     
#>  7 ""      ""       ""     
#>  8 ""      ""       ""     
#>  9 ""      ""       ""     
#> 10 ""      ""       ""     
#> # ℹ 20 more rows
```
…
Notice that applying
[`remove_wells()`](https://mdetoeuf.github.io/plate2N/reference/remove_wells.md)
to `tidy_table` from this table of `failed_wells` results in the same as
just filtering out those wells. So simply using
[`dplyr::filter_out()`](https://dplyr.tidyverse.org/reference/filter.html)
may be more efficient in this case:

``` r

tidy_table |> remove_wells(failed_wells)
#> # A tibble: 958 × 8
#>    row   column well_id plate_id unique_well_id dataset map     abs   
#>    <chr> <chr>  <chr>   <chr>    <chr>          <chr>   <chr>   <chr> 
#>  1 A     1      A1      M12      A1_M12         expe1   Std0001 1.4402
#>  2 A     1      A1      M17      A1_M17         expe1   Std0193 1.5611
#>  3 A     1      A1      M18      A1_M18         expe1   Std0289 1.7013
#>  4 A     1      A1      M19      A1_M19         expe1   Std0385 1.6865
#>  5 A     1      A1      M20      A1_M20         expe1   Std0481 1.7936
#>  6 A     1      A1      M21      A1_M21         expe1   Std0577 1.7925
#>  7 A     1      A1      M22      A1_M22         expe1   Std0673 1.8274
#>  8 A     1      A1      M23      A1_M23         expe1   Std0769 1.9330
#>  9 A     1      A1      M1       A1_M1          expe1   Std0865 0.9254
#> 10 A     2      A2      M12      A2_M12         expe1   Std0002 1.4802
#> # ℹ 948 more rows

tidy_table |> dplyr::filter_out(
    dataset == "expe1" &
    ((plate_id == "M16" & well_id == "A1") |
       (plate_id == "M23" & well_id == "H12"))
  )
#> # A tibble: 958 × 8
#>    row   column well_id plate_id unique_well_id dataset map     abs   
#>    <chr> <chr>  <chr>   <chr>    <chr>          <chr>   <chr>   <chr> 
#>  1 A     1      A1      M12      A1_M12         expe1   Std0001 1.4402
#>  2 A     1      A1      M17      A1_M17         expe1   Std0193 1.5611
#>  3 A     1      A1      M18      A1_M18         expe1   Std0289 1.7013
#>  4 A     1      A1      M19      A1_M19         expe1   Std0385 1.6865
#>  5 A     1      A1      M20      A1_M20         expe1   Std0481 1.7936
#>  6 A     1      A1      M21      A1_M21         expe1   Std0577 1.7925
#>  7 A     1      A1      M22      A1_M22         expe1   Std0673 1.8274
#>  8 A     1      A1      M23      A1_M23         expe1   Std0769 1.9330
#>  9 A     1      A1      M1       A1_M1          expe1   Std0865 0.9254
#> 10 A     2      A2      M12      A2_M12         expe1   Std0002 1.4802
#> # ℹ 948 more rows
```
…
By default,
[`qc_raw_abs()`](https://mdetoeuf.github.io/plate2N/reference/qc_raw_abs.md)
also draws a plot of the distribution of raw absorbance values in the
data set, and sends either a message (all is well) or a warning (some
wells are out of range). These outputs can be repressed. See
`?qc_raw_abs()` for more details.

Default range of accepted absorbance is \[0.1, 1\], but it can be
modulated with the arguments `min_abs` and `max_abs`.

``` r

# check out the raw table
tidy_plates
#> # A tibble: 480 × 8
#>    row   column well_id unique_well_id dataset plate_id map      abs  
#>    <chr> <chr>  <chr>   <chr>          <chr>   <chr>    <chr>    <chr>
#>  1 A     1      A1      A1_NO3_1F1     Nmin    NO3_1F1  Std      0.092
#>  2 A     1      A1      A1_NO3_1F2     Nmin    NO3_1F2  Std      0.091
#>  3 A     1      A1      A1_NO3_1F3     Nmin    NO3_1F3  Std      0.110
#>  4 A     1      A1      A1_NO3_1F4     Nmin    NO3_1F4  Std      0.092
#>  5 A     1      A1      A1_NO3_1F5     Nmin    NO3_1F5  Std      0.113
#>  6 A     2      A2      A2_NO3_1F1     Nmin    NO3_1F1  81_t1_z2 0.114
#>  7 A     2      A2      A2_NO3_1F2     Nmin    NO3_1F2  97_t1_z1 0.107
#>  8 A     2      A2      A2_NO3_1F3     Nmin    NO3_1F3  89_t1_z3 0.095
#>  9 A     2      A2      A2_NO3_1F4     Nmin    NO3_1F4  81_t1_z1 0.118
#> 10 A     2      A2      A2_NO3_1F5     Nmin    NO3_1F5  Std_3_t1 0.167
#> # ℹ 470 more rows
…
    #> # A tibble: 46 × 5
    #>    dataset plate_id well_id map      abs
    #>    <chr>   <chr>    <chr>   <chr>    <chr>
    #>  1 Nmin    NO3_1F1  A8      extr     0.083
    #>  2 Nmin    NO3_1F2  A8      extr     0.083
    #>  3 Nmin    NO3_1F3  A8      extr     0.084
    #>  4 Nmin    NO3_1F4  A8      extr     0.084
    #>  5 Nmin    NO3_1F5  A8      extr     0.084
    #>  6 Nmin    NO3_1F3  B2      89_t1_z3 0.085
    #>  7 Nmin    NO3_1F1  B8      extr     0.083
    #>  8 Nmin    NO3_1F2  B8      extr     0.082
    #>  9 Nmin    NO3_1F3  B8      extr     0.085
    #> 10 Nmin    NO3_1F4  B8      extr     0.084
    #> # ℹ 36 more rows

It can happen that some wells are very striking, e.g., a single well
with an absorbance of 3 where the rest of the dataset is around 1 and
the experiment has been ran in 4 technical replicates (there should
always be 4 wells for each value). In such cases, the output of
[`qc_raw_abs()`](https://mdetoeuf.github.io/plate2N/reference/qc_raw_abs.md)
can be used in combination with
[`remove_wells()`](https://mdetoeuf.github.io/plate2N/reference/remove_wells.md),
possibly with additional selection and filtering steps as shown above.

``` r

tidy_plates |> remove_wells(suspicious_wells)
#> # A tibble: 434 × 8
#>    row   column well_id unique_well_id dataset plate_id map      abs  
#>    <chr> <chr>  <chr>   <chr>          <chr>   <chr>    <chr>    <chr>
#>  1 A     1      A1      A1_NO3_1F1     Nmin    NO3_1F1  Std      0.092
#>  2 A     1      A1      A1_NO3_1F2     Nmin    NO3_1F2  Std      0.091
#>  3 A     1      A1      A1_NO3_1F3     Nmin    NO3_1F3  Std      0.110
#>  4 A     1      A1      A1_NO3_1F4     Nmin    NO3_1F4  Std      0.092
#>  5 A     1      A1      A1_NO3_1F5     Nmin    NO3_1F5  Std      0.113
#>  6 A     2      A2      A2_NO3_1F1     Nmin    NO3_1F1  81_t1_z2 0.114
#>  7 A     2      A2      A2_NO3_1F2     Nmin    NO3_1F2  97_t1_z1 0.107
#>  8 A     2      A2      A2_NO3_1F3     Nmin    NO3_1F3  89_t1_z3 0.095
#>  9 A     2      A2      A2_NO3_1F4     Nmin    NO3_1F4  81_t1_z1 0.118
#> 10 A     2      A2      A2_NO3_1F5     Nmin    NO3_1F5  Std_3_t1 0.167
#> # ℹ 424 more rows
```

## 4 - When to remove outliers?

From the end of the `import-tidy` vignette until linear model
application, tables are in the same “tidy” format, with one row per well
and one column for absorbance (blank-corrected or raw), like this:

``` r

tidy_table
#> # A tibble: 960 × 8
#>    row   column well_id plate_id unique_well_id dataset map     abs   
#>    <chr> <chr>  <chr>   <chr>    <chr>          <chr>   <chr>   <chr> 
#>  1 A     1      A1      M12      A1_M12         expe1   Std0001 1.4402
#>  2 A     1      A1      M16      A1_M16         expe1   Std0097 1.5789
#>  3 A     1      A1      M17      A1_M17         expe1   Std0193 1.5611
#>  4 A     1      A1      M18      A1_M18         expe1   Std0289 1.7013
#>  5 A     1      A1      M19      A1_M19         expe1   Std0385 1.6865
#>  6 A     1      A1      M20      A1_M20         expe1   Std0481 1.7936
#>  7 A     1      A1      M21      A1_M21         expe1   Std0577 1.7925
#>  8 A     1      A1      M22      A1_M22         expe1   Std0673 1.8274
#>  9 A     1      A1      M23      A1_M23         expe1   Std0769 1.9330
#> 10 A     1      A1      M1       A1_M1          expe1   Std0865 0.9254
#> # ℹ 950 more rows
```
…
