…
``` r

# take random fruit names as sample names
samples <- stringr::fruit[1:70]

# Have a look at the first 5
samples[1:5]
#> [1] "apple"       "apricot"     "avocado"     "banana"      "bell pepper"

tibble <- map_plates(
  samples, 
  n_samples_per_plate = 14, 
  column_blank = 6) 
tibble |> print(n = 15)
#> # A tibble: 45 × 13
#>    row   X1    X2    X3    X4    X5    X6    X7    X8    X9    X10   X11   X12  
#>    <chr> <chr> <chr> <chr> <chr> <chr> <chr> <chr> <chr> <chr> <chr> <chr> <chr>
#>  1 plat… 1     2     3     4     5     6     7     8     9     10    11    12   
#>  2 A     Std   apple avoc… bell… blac… extr  bloo… boys… cana… empty empty Std  
#>  3 B     Std   apple avoc… bell… blac… extr  bloo… boys… cana… empty empty Std  
#>  4 C     Std   apple avoc… bell… blac… extr  bloo… boys… cana… empty empty Std  
#>  5 D     Std   apple avoc… bell… blac… extr  bloo… boys… cana… empty empty Std  
#>  6 E     Std   apri… bana… bilb… blac… extr  blue… brea… cant… empty empty Std  
#>  7 F     Std   apri… bana… bilb… blac… extr  blue… brea… cant… empty empty Std  
#>  8 G     Std   apri… bana… bilb… blac… extr  blue… brea… cant… empty empty Std  
#>  9 H     Std   apri… bana… bilb… blac… extr  blue… brea… cant… empty empty Std  
#> 10 plat… 1     2     3     4     5     6     7     8     9     10    11    12   
#> 11 A     Std   cher… chil… clou… cran… extr  curr… date  duri… empty empty Std  
#> 12 B     Std   cher… chil… clou… cran… extr  curr… date  duri… empty empty Std  
#> 13 C     Std   cher… chil… clou… cran… extr  curr… date  duri… empty empty Std  
#> 14 D     Std   cher… chil… clou… cran… extr  curr… date  duri… empty empty Std  
#> 15 E     Std   cher… clem… coco… cucu… extr  dams… drag… eggp… empty empty Std  
#> # ℹ 30 more rows
```
…
